<svg width="83" height="80" viewBox="0 0 60 90" fill="none" 
    xmlns="http://www.w3.org/2000/svg">
    <path d="M51.0265 3.57959H11.9608L4.70703 16.8899H58.2931L51.0265 3.57959Z" fill="#616161"/>
    <path d="M46.3524 24.2034C44.7433 26.6899 42.0231 28.3254 38.9326 28.3254C35.8548 28.3254 33.1219 26.6899 31.5128 24.2034C29.8909 26.6899 27.1707 28.3254 24.0802 28.3254C20.9897 28.3254 18.2568 26.6899 16.6477 24.2034C15.0385 26.6899 12.3056 28.3254 9.21508 28.3254C9.03629 28.3254 8.8575 28.3254 8.67871 28.3122V54.0153H14.1063V36.7824C14.1063 33.7639 16.4689 31.3173 19.355 31.3173H23.812C26.711 31.3173 29.0608 33.7772 29.0608 36.7824V54.002H54.3086V28.3122C54.1298 28.3122 53.9637 28.3254 53.785 28.3254C50.6944 28.3254 47.9615 26.6899 46.3524 24.2034ZM48.8682 42.4868C48.8682 44.9068 46.9782 46.8748 44.6539 46.8748H36.1613C33.8371 46.8748 31.947 44.9068 31.947 42.4868V35.7053C31.947 33.2852 33.8371 31.3173 36.1613 31.3173H44.6539C46.9782 31.3173 48.8682 33.2852 48.8682 35.7053V42.4868Z" fill="#616161"/>
    <path d="M44.6542 31.3171H36.1616C33.8373 31.3171 31.9473 33.2851 31.9473 35.7051V42.4866C31.9473 44.9067 33.8373 46.8746 36.1616 46.8746H44.6542C46.9785 46.8746 48.8686 44.9067 48.8686 42.4866V35.7051C48.8686 33.2851 46.9785 31.3171 44.6542 31.3171ZM45.8036 42.4866C45.8036 43.1515 45.28 43.6833 44.6542 43.6833H36.1616C35.5231 43.6833 35.0123 43.1382 35.0123 42.4866V35.7051C35.0123 35.0403 35.5359 34.5084 36.1616 34.5084H44.6542C45.2927 34.5084 45.8036 35.0536 45.8036 35.7051V42.4866Z" fill="#616161"/>
    <path d="M53.2486 1.18612C52.9804 0.694129 52.4696 0.375 51.9204 0.375H11.0668C10.5177 0.375 10.0068 0.680832 9.73866 1.18612L0.454332 18.2063C0.326624 18.4457 0.25 18.7116 0.25 18.9908C0.25 22.8071 2.45934 26.0781 5.61371 27.5275V55.5975C5.61371 56.4751 6.30333 57.1932 7.1462 57.1932H15.6132C15.626 57.1932 15.6387 57.1932 15.6515 57.1932H27.5283C27.5411 57.1932 27.5538 57.1932 27.5666 57.1932H55.841C56.6839 57.1932 57.3735 56.4751 57.3735 55.5975V27.727C57.3735 27.6605 57.3735 27.6073 57.3608 27.5541C60.5279 26.1047 62.75 22.8204 62.75 18.9908C62.75 18.7116 62.6861 18.4457 62.5457 18.2063L53.2486 1.18612ZM11.9608 3.57958H51.0265L58.293 16.8899H4.70699L11.9608 3.57958ZM44.7305 20.0679C44.2452 22.9401 41.8315 25.1208 38.9326 25.1208C36.0336 25.1208 33.6199 22.9401 33.1347 20.0679H44.7305ZM29.8781 20.0679C29.3928 22.9401 26.9792 25.1208 24.0802 25.1208C21.1812 25.1208 18.7676 22.9401 18.2695 20.0679H29.8781ZM3.41714 20.0679H15.0257C14.5405 22.9401 12.114 25.1208 9.21506 25.1208C6.3161 25.1341 3.90243 22.9401 3.41714 20.0679ZM26.0086 54.0019H25.9958H17.184V36.7823C17.184 35.5323 18.1546 34.5085 19.3678 34.5085H23.8248C25.0252 34.5085 26.0086 35.519 26.0086 36.7823V54.0019ZM54.3085 54.0019H29.0608V36.7823C29.0608 33.7771 26.711 31.3172 23.812 31.3172H19.355C16.4688 31.3172 14.1063 33.7638 14.1063 36.7823V54.0152H8.67869V28.312C8.85748 28.3253 9.03627 28.3253 9.21506 28.3253C12.3056 28.3253 15.0385 26.6898 16.6476 24.2033C18.2567 26.6898 20.9897 28.3253 24.0802 28.3253C27.1707 28.3253 29.8909 26.6898 31.5128 24.2033C33.1219 26.6898 35.8548 28.3253 38.9326 28.3253C42.0231 28.3253 44.7433 26.6898 46.3524 24.2033C47.9615 26.6898 50.6944 28.3253 53.7849 28.3253C53.9637 28.3253 54.1297 28.312 54.3085 28.312V54.0019ZM53.7849 25.1341C50.886 25.1341 48.4723 22.9533 47.987 20.0812H59.5956C59.0976 22.9401 56.6839 25.1341 53.7849 25.1341Z" fill="#616161"/>
</svg>
